^D:\ТЕЛЕГРАМ\ЗАГРУЗКИ\GIT-LABA10.01\GIT-LABA10.01\UNIT-TEST-PROJECT\X64\DEBUG\PCH.OBJ|D:\ТЕЛЕГРАМ\ЗАГРУЗКИ\GIT-LABA10.01\GIT-LABA10.01\UNIT-TEST-PROJECT\X64\DEBUG\UNIT-TEST-PROJECT.OBJ
C:\USERS\VADIM\GIT\GIT-LABA10.01\CONSOLEAPPLICATION25\X64\DEBUG\PROCESS.OBJ
D:\WINDOWS KITS\10\LIB\10.0.22000.0\UM\X64\KERNEL32.LIB
D:\WINDOWS KITS\10\LIB\10.0.22000.0\UM\X64\USER32.LIB
D:\WINDOWS KITS\10\LIB\10.0.22000.0\UM\X64\GDI32.LIB
D:\WINDOWS KITS\10\LIB\10.0.22000.0\UM\X64\WINSPOOL.LIB
D:\WINDOWS KITS\10\LIB\10.0.22000.0\UM\X64\COMDLG32.LIB
D:\WINDOWS KITS\10\LIB\10.0.22000.0\UM\X64\ADVAPI32.LIB
D:\WINDOWS KITS\10\LIB\10.0.22000.0\UM\X64\SHELL32.LIB
D:\WINDOWS KITS\10\LIB\10.0.22000.0\UM\X64\OLE32.LIB
D:\WINDOWS KITS\10\LIB\10.0.22000.0\UM\X64\OLEAUT32.LIB
D:\WINDOWS KITS\10\LIB\10.0.22000.0\UM\X64\UUID.LIB
D:\WINDOWS KITS\10\LIB\10.0.22000.0\UM\X64\ODBC32.LIB
D:\WINDOWS KITS\10\LIB\10.0.22000.0\UM\X64\ODBCCP32.LIB
D:\Телеграм\Загрузки\GIT-LABA10.01\GIT-LABA10.01\UNIT-TEST-PROJECT\X64\DEBUG\PCH.OBJ
D:\Телеграм\Загрузки\GIT-LABA10.01\GIT-LABA10.01\UNIT-TEST-PROJECT\X64\DEBUG\UNIT-TEST-PROJECT.OBJ
D:\Телеграм\Загрузки\GIT-LABA10.01\GIT-LABA10.01\UNIT-TEST-PROJECT\X64\DEBUG\UNIT-TEST-PROJECT.ILK
C:\WINDOWS\SYSTEM32\TZRES.DLL
C:\WINDOWS\GLOBALIZATION\SORTING\SORTDEFAULT.NLS
D:\VISUAL STUDIO\VC\TOOLS\MSVC\14.34.31933\LIB\X64\MSVCRTD.LIB
D:\VISUAL STUDIO\VC\TOOLS\MSVC\14.34.31933\LIB\X64\OLDNAMES.LIB
D:\VISUAL STUDIO\VC\AUXILIARY\VS\UNITTEST\LIB\X64\MICROSOFT.VISUALSTUDIO.TESTTOOLS.CPPUNITTESTFRAMEWORK.LIB
D:\VISUAL STUDIO\VC\TOOLS\MSVC\14.34.31933\LIB\X64\MSVCPRTD.LIB
D:\VISUAL STUDIO\VC\TOOLS\MSVC\14.34.31933\LIB\X64\VCRUNTIMED.LIB
D:\WINDOWS KITS\10\LIB\10.0.22000.0\UCRT\X64\UCRTD.LIB
D:\телеграм\загрузки\GIT-LABA10.01\GIT-LABA10.01\UNIT-TEST-PROJECT\X64\DEBUG\VC143.PDB
